-208 -304 -392 -8 -16 24
408 -176 392
-64 -56 -600 -96 144
-152 -72 -464 -232 -24 8
-80 -104 792
-680 136 -32 120
992
-824 -80 -24 40
712 -80 -24 152
-200 -80 -280 -224 -64 104
872 -72 -8 16
-536 -240 -64 128
-72 -912
992
752 -8 216
840 -96 40
-992
-992
